{
  "sessionCreationTime" : "2021-02-19T11:28:28+0100",
  "analyzerSettings" : { },
  "scenarios" : [ {
    "class" : "Feature: Scenario: Verification of Reset button",
    "tests" : [ {
      "name" : "Given Open the Firefox and launch the application",
      "timeMetaData" : {
        "startTime" : 1613730520604,
        "duration" : 3
      },
      "actions" : [ {
        "metadata" : {
          "command" : "findElement",
          "parameters" : {
            "using" : "name",
            "value" : "uid"
          },
          "resultElements" : [ {
            "locator" : "name",
            "term" : "uid",
            "xpath" : "/html/body/form/table/tbody/tr[1]/td[2]/input"
          } ]
        }
      }, {
        "metadata" : {
          "command" : "sendKeysToElement",
          "parameters" : {
            "value" : "username12",
            "contextElement" : {
              "locator" : "name",
              "term" : "uid",
              "xpath" : "/html/body/form/table/tbody/tr[1]/td[2]/input"
            }
          }
        }
      }, {
        "metadata" : {
          "command" : "findElement",
          "parameters" : {
            "using" : "name",
            "value" : "password"
          },
          "resultElements" : [ {
            "locator" : "name",
            "term" : "password",
            "xpath" : "/html/body/form/table/tbody/tr[2]/td[2]/input"
          } ]
        }
      }, {
        "metadata" : {
          "command" : "sendKeysToElement",
          "parameters" : {
            "value" : "password12",
            "contextElement" : {
              "locator" : "name",
              "term" : "password",
              "xpath" : "/html/body/form/table/tbody/tr[2]/td[2]/input"
            }
          }
        }
      } ],
      "result" : {
        "status" : "passed"
      }
    }, {
      "name" : "Then Reset the credential",
      "timeMetaData" : {
        "startTime" : 1613730520939,
        "duration" : 1
      },
      "actions" : [ ],
      "result" : {
        "status" : "passed"
      }
    }, {
      "name" : "When Enter the Username and Password",
      "timeMetaData" : {
        "startTime" : 1613730520700,
        "duration" : 2
      },
      "actions" : [ {
        "metadata" : {
          "command" : "findElement",
          "parameters" : {
            "using" : "name",
            "value" : "btnReset"
          },
          "resultElements" : [ {
            "locator" : "name",
            "term" : "btnReset",
            "xpath" : "/html/body/form/table/tbody/tr[3]/td[2]/input[2]"
          } ]
        }
      }, {
        "metadata" : {
          "command" : "clickElement",
          "parameters" : {
            "contextElement" : {
              "locator" : "name",
              "term" : "btnReset",
              "xpath" : "/html/body/form/table/tbody/tr[3]/td[2]/input[2]"
            }
          }
        }
      } ],
      "result" : {
        "status" : "passed"
      }
    } ]
  } ]
}