-------------------------------------------------------------------------------
Test set: cucumber.CucumberAndSelenium.RunnerTest
-------------------------------------------------------------------------------
Tests run: 4, Failures: 0, Errors: 0, Skipped: 0, Time elapsed: 8.473 s - in cucumber.CucumberAndSelenium.RunnerTest
