C:\Users\pteodor\selenic_2020_2\CucumberAndSelenium\src\test\java\StepDefinition\Steps.java
C:\Users\pteodor\selenic_2020_2\CucumberAndSelenium\src\main\java\cucumber\CucumberAndSelenium\App.java
C:\Users\pteodor\selenic_2020_2\CucumberAndSelenium\src\test\java\cucumber\CucumberAndSelenium\RunnerTest.java
